@startuml

skinparam monochrome true
skinparam packageStyle rect
skinparam defaultFontName FG Virgil
skinparam shadowing false
skinparam linetype ortho

class GetTransactionsOfAccountWithinPeriodController{

+ getTransactionsOfPersonAccountWithinPeriodController\n(person : Person, account : Account, \n initialDate : String, finalDate : String)
}

class Person {
- name : Name
- address : Address
- birthplace : Birthplace
- birthdate : Birthdate
- mother : Person
- father : Person

+ getTransactionsOfAccountWithinPeriod\n(account : Account, initialDateTime : String,\n finalDateTime : String)
}

class Accounts {
+ hasAccount(account : Account)
}

class Account {
- denomination : Denomination
- description : Description
}

class Ledger {
+ getTransactionsOfAccountWithinPeriod\n(account : Account,  initialDateTime : String,\n finalDateTime : String)
}

class Transaction {
- amount : Amount
- dateTime : DateTime
- type : Type
- description : Description
- category : Category

+ isBetweenDate(initialDateTime : String,\n finalDateTime : String)
+ hasAccount(account : Account)
}

GetTransactionsOfAccountWithinPeriodController ..> Person : uses

Person --> "1"Accounts : has
Person --> "0..1"Ledger : has
Ledger --> "*" Transaction : registersTransactions
Accounts --> "*" Account : groupsAccounts
Transaction -left-> "1"Account : hasDebitAccount
Transaction -left-> "1"Account : hasCreditAccount

@enduml