@startuml

skinparam monochrome true
skinparam packageStyle rect
skinparam defaultFontName FG Virgil
skinparam shadowing false
skinparam linetype ortho

class Group {
-description : Description
-creationDate : CreationDate
-categories : Categories
-accounts : Accounts
-members : Set<Person>
-managers : Set<Person>
+ addTransaction \n(amount : Double, \ntype : String, \ndateTime : String, \ndescription : String, \ncategory : Category, \ndebitAccount : Account, \ncreditAccount : Account)
}

class Description {
- description : String
}


class Ledger {
+ addTransaction \n(amount : Double, \ntype : String,  \ndateTime : String, \ndescription : String, \ncategory : Category, \ndebitAccount : Account, \ncreditAccount : Account)
}

class Transaction {
-category : Category
-debitAccount : Account
-creditAccount : Account
}

class Amount{
- amount : Double
}

Class DateTime{
- dateTime : String
}

Class Type{
-type : int
}


Group -right->  Ledger  :"    0..1" has
Ledger --> "*" Transaction :registersTransactions
Transaction --> "1 " Amount :has
Transaction --> "1" DateTime :has
Transaction --> "1" Type :has
Transaction --> "1" Description :has



@enduml