@startuml

skinparam monochrome true
skinparam packageStyle rect
skinparam defaultFontName FG Virgil
skinparam shadowing false
skinparam linetype ortho

class Person {
- name : Name
- address Address
- birthPlace : Birthplace
- birthDate : Birthdate
- mother : Person
- father : Person

+ Person ()
+ addCategory (designation : String)
}

class Category {
+ Category ()
}

class Designation {
- designation : String
}

class Categories {
- addCategory (designation : String)
- hasCategory (newCategory : Category)
}

Person --right>"   1 " Categories : "has"
Categories  --right> "*" Category : groupsCategories
Category --> "1   " Designation : " has"

@enduml