@startuml

skinparam defaultFontSize 16

skinparam sequence {
   ArrowColor blue
   LifeLineBorderColor blue
   ParticipantBorderColor blue
   ParticipantBackgroundColor transparent
   ParticipantFontSize 16
   ActorFontColor blue
   ActorFontSize 15
   ActorFontName blue }
hide footbox

autonumber "8-11-"

participant ":AccountRepositoryDB" as accountrepoDB
participant ":AccountJPARepository" as accountjparepo
participant ":AccountDomainDataAssembler" as accountjpaassembler
participant "accountJPA\n:AccountJpa" as accountjpa
participant "savedAccountJPA\n:AccountJpa" as savedaccountjpa
participant "savedAccount\n:Account" as savedaccount

group SD save ( account )
-> accountrepoDB : savedAccount = save (account)
accountrepoDB -> accountjpaassembler : accountJPA = toData (account)
accountjpaassembler -> accountjpa *: ( )
accountrepoDB -> accountjparepo : savedAccountJPA = save (accountJPA)
accountjparepo -> savedaccountjpa *: ( )
accountrepoDB -> accountjpaassembler : savedAccount = toDomain (savedAccountJPA)
accountjpaassembler -> savedaccount *: (savedAccountJPA.getID ( ), \n savedAccountJPA.getDescription ( ), \n savedAccountJPA.getCreationDate ( ), \n savedAccountJPA.getCreator ( ), \n savedAccountJPA.getLedgerID ( ))


end

@enduml