@startuml

skinparam defaultFontSize 16

skinparam sequence {
   ArrowColor blue
   LifeLineBorderColor blue
   ParticipantBorderColor blue
   ParticipantBackgroundColor transparent
   ParticipantFontSize 16
   ActorFontColor blue
   ActorFontSize 15
   ActorFontName blue }
hide footbox

autonumber "7-13-"

participant ":LedgerRepository" as ledgerRepo
participant ":LedgerJPARepository" as ledgerjparepo
participant ":LedgerDomainDataAssembler" as ledgerjpaassembler
participant "updatedLedgerJPA\n:LedgerJpa" as updatedledgerjpa
participant "savedLedgerJPA\n:LedgerJpa" as savedledgerjpa
participant "savedLedger\n:Ledger" as savedledger

group SD save(ledger)
-> ledgerRepo : savedLedger = save (ledger)
activate ledgerRepo
ledgerRepo -> ledgerjpaassembler : updatedLedgerJPA = toData (ledger)
activate ledgerjpaassembler
ledgerjpaassembler -> updatedledgerjpa *: ( )
deactivate ledgerjpaassembler

ledgerRepo -> ledgerjparepo : savedLedgerJPA = save (updatedLedgerJPA)
activate ledgerjparepo

ledgerjparepo -> savedledgerjpa *: ( )
deactivate ledgerjparepo

ledgerRepo -> ledgerjpaassembler : savedLedger = toDomain (savedLedgerJPA)
activate ledgerjpaassembler

ledgerjpaassembler -> savedledger *: (savedLedgerJPA.getID ( ), \n savedLedgerJPA.getTransactions())
deactivate ledgerjpaassembler
deactivate ledgerRepo

end

@enduml