@startuml
skinparam monochrome true
skinparam packageStyle rect
skinparam defaultFontName FG Virgil
skinparam shadowing false
skinparam linetype ortho
hide footbox

participant ":Test" as test
participant ":PersonTransactionsWithinPeriodController" as ctrl
participant "person:Person" as person
participant ":Ledger" as ledger

==ACT==
test ->  ctrl : getPersonTransactionsWithinPeriod \n(person, initialDateTime, finalDateTime)
activate ctrl
ctrl -> person : getTransactionsWithinPeriod\n(initialDateTime, finalDateTime)
activate person
person -> "ledger" : getTransactionsWithinPeriod\n(initialDateTime, finalDateTime)
ref over ledger : getTransactionsWithinPeriod \nfrom Ledger
activate ledger
ledger --> person : result
deactivate ledger
person --> ctrl : reult
deactivate person
ctrl --> test : result
deactivate ctrl
==ASSERT==
test -> test : assertEquals(expected,result)

@enduml