@startuml

skinparam class {
	ArrowColor blue
	BorderColor RosyBrown
	BackgroundColor lightyellow
}

skinparam {
    packageStyle rect
    defaultFontName FG Virgil
    linetype ortho
    ArrowColor blue
    defaultFontSize 16
    LifeLineBorderColor blue
    ParticipantBorderColor blue
    ParticipantBackgroundColor transparent
    ActorFontColor blue
    }

title **US4 - As a system manager, I want to know which groups are family - Class Diagram** \n

Class GetFamilyGroupsController << Controller >> {
+getFamilyGroups ( ) : GetFamilyGroupsDTO
}

Class GetFamilyGroupsService << Service >> {
+getFamilyGroups ( ) : GetFamilyGroupsDTO
+getMembers ( ) : Set<Person>
+checkIfGroupContainsBothParents (group : Group) : boolean
+getNumberOfChildren (group : Group) : int
+isFamilyGroup (group : Group) : boolean
}

Class Person << Aggregate Root >> {
+hasFather (personID: PersonID)
+hasMother (personID: PersonID)
}

Class Group << Aggregate Root >> {
+getMembersIDs ( ) : PersonsIDs
}

Class PersonID <<VO>> {
-personID : Long
}

Class GroupID <<VO>> {
-groupID : Long
}

Class PersonsIDs <<VO>> {
-personsIDs : Set<PersonID>
}


Class PersonRepository <<Repository>>
Class PersonRepository implements Repository {
}

Class GroupRepository <<Repository>>
Class GroupRepository implements Repository {
}

Interface Repository <<Interface>> {
+findAll ( ) : Iterable<Entity>
+add (entity : Entity) : boolean
+findByID (entityID : EntityID) : Optional<Entity>
+contains (entity : Entity) : boolean
+containsByID (entityID : EntityID) : boolean
}

Person -left->  "1"  PersonID : "      < references mother"
Person -left->  "1"  PersonID : "      < references father"
Person -left->  "1"  PersonID : "      < is identified by"

PersonsIDs -right->  "*"  PersonID : "stores > "

Group -left->  "1"  GroupID : "    < is identified by"

Group -->  "1"  PersonsIDs : "has list \n of \n member \n IDs \n v"
Group -->  "1"  PersonsIDs : "has list \n of \n manager \n IDs \n v"

GroupRepository -->  "*"  Group : "stores \n v"

PersonRepository -->  "*"  Person : "stores \n v"

GetFamilyGroupsService -up->  "1"  PersonRepository : "^ \n has"
GetFamilyGroupsService -up->  "1"  GroupRepository : "^ \n has"

GetFamilyGroupsController .left.>  GetFamilyGroupsService

@enduml